FORE_I2C/capture.vcd
$timescale 1 ns $end
$scope module top $end
$var wire 1 ! SDA $end
$var wire 1 " SCL $end
$upscope $end
$enddefinitions $end
#4150000000
1!
1"
#4177172833
0!
#4177177833
0"
#4177182833
1!
#4177187333
1"
#4177192416
0"
#4177192750
0!
#4177197333
1"
#4177202416
0"
#4177202750
1!
#4177207333
1"
#4177212416
0"
#4177212750
0!
#4177217333
1"
#4177222333
0"
#4177227333
1"
#4177232333
0"
#4177237333
1"
#4177242333
0"
#4177247333
1"
#4177252333
0"
#4177257250
1"
#4177262333
0"
#4177267250
1"
#4177272333
0"
#4177272416
1!
#4177277750
0!
#4177282500
1"
#4177287583
0"
#4177292500
1"
#4177297500
0"
#4177302500
1"
#4177307500
0"
#4177312500
1"
#4177317500
0"
#4177322500
1"
#4177327500
0"
#4177332416
1"
#4177337500
0"
#4177342416
1"
#4177347500
0"
#4177352416
1"
#4177357500
0"
#4177362416
1"
#4177367500
0"
#4177367583
1!
#4177367833
0!
#4177377000
1"
#4177382083
0"
#4177382416
1!
#4177387000
1"
#4177392083
0"
#4177392416
0!
#4177397000
1"
#4177402083
0"
#4177407000
1"
#4177412000
0"
#4177412333
1!
#4177417000
1"
#4177422000
0"
#4177422416
0!
#4177427000
1"
#4177432000
0"
#4177432333
1!
#4177437000
1"
#4177442000
0"
#4177442416
0!
#4177446916
1"
#4177452000
0"
#4177456916
1"
#4177462000
0"
#4177462083
1!
#4177462333
0!
#4177471333
1"
#4177476666
1!
#4187496000
0!
#4187501083
0"
#4187506083
1!
#4187510583
1"
#4187515583
0"
#4187516000
0!
#4187520500
1"
#4187525583
0"
#4187525916
1!
#4187530500
1"
#4187535583
0"
#4187535916
0!
#4187540500
1"
#4187545583
0"
#4187550500
1"
#4187555583
0"
#4187560500
1"
#4187565583
0"
#4187570500
1"
#4187575500
0"
#4187580500
1"
#4187585500
0"
#4187590500
1"
#4187595500
0"
#4187595666
1!
#4187600916
0!
#4187605666
1"
#4187610666
0"
#4187615666
1"
#4187620666
0"
#4187625583
1"
#4187630666
0"
#4187635583
1"
#4187640666
0"
#4187645583
1"
#4187650666
0"
#4187655583
1"
#4187660666
0"
#4187665583
1"
#4187670583
0"
#4187670916
1!
#4187675583
1"
#4187680583
0"
#4187680666
0!
#4187685583
1"
#4187690583
0"
#4187690750
1!
#4187691000
0!
#4187700250
1"
#4187705250
0"
#4187705583
1!
#4187710250
1"
#4187715250
0"
#4187715666
0!
#4187720166
1"
#4187725250
0"
#4187730166
1"
#4187735250
0"
#4187735583
1!
#4187740166
1"
#4187745250
0"
#4187745583
0!
#4187750166
1"
#4187755250
0"
#4187760166
1"
#4187765166
0"
#4187770166
1"
#4187775166
0"
#4187780166
1"
#4187785166
0"
#4187785333
1!
#4187785583
0!
#4187794500
1"
#4187799833
1!
#4197814166
0!
#4197819250
0"
#4197824250
1!
#4197828750
1"
#4197833833
0"
#4197834166
0!
#4197838750
1"
#4197843750
0"
#4197844083
1!
#4197848750
1"
#4197853750
0"
#4197854166
0!
#4197858750
1"
#4197863750
0"
#4197868750
1"
#4197873750
0"
#4197878666
1"
#4197883750
0"
#4197888666
1"
#4197893750
0"
#4197898666
1"
#4197903750
0"
#4197908666
1"
#4197913750
0"
#4197913833
1!
#4197919166
0!
#4197923916
1"
#4197928916
0"
#4197933916
1"
#4197938916
0"
#4197943916
1"
#4197948916
0"
#4197953833
1"
#4197958916
0"
#4197963833
1"
#4197968916
0"
#4197973833
1"
#4197978916
0"
#4197979250
1!
#4197983833
1"
#4197988916
0"
#4197989250
0!
#4197993833
1"
#4197998833
0"
#4198003833
1"
#4198008833
0"
#4198009000
1!
#4198009250
0!
#4198018500
1"
#4198023500
0"
#4198023833
1!
#4198028500
1"
#4198033500
0"
#4198038500
1"
#4198043500
0"
#4198048416
1"
#4198053500
0"
#4198053833
0!
#4198058416
1"
#4198063500
0"
#4198063833
1!
#4198068416
1"
#4198073500
0"
#4198073833
0!
#4198078416
1"
#4198083500
0"
#4198088416
1"
#4198093416
0"
#4198098416
1"
#4198103416
0"
#4198103583
1!
#4198103833
0!
#4198112750
1"
#4198118166
1!
#4208132416
0!
#4208137500
0"
#4208142500
1!
#4208146916
1"
#4208152000
0"
#4208152416
0!
#4208156916
1"
#4208162000
0"
#4208162333
1!
#4208166916
1"
#4208172000
0"
#4208172333
0!
#4208176916
1"
#4208182000
0"
#4208186916
1"
#4208191916
0"
#4208196916
1"
#4208201916
0"
#4208206916
1"
#4208211916
0"
#4208216916
1"
#4208221916
0"
#4208226833
1"
#4208231916
0"
#4208232000
1!
#4208237250
0!
#4208242000
1"
#4208247083
0"
#4208252000
1"
#4208257083
0"
#4208262000
1"
#4208267083
0"
#4208272000
1"
#4208277083
0"
#4208282000
1"
#4208287083
0"
#4208292000
1"
#4208297000
0"
#4208297333
1!
#4208302000
1"
#4208307000
0"
#4208312000
1"
#4208317000
0"
#4208317083
0!
#4208321916
1"
#4208327000
0"
#4208327083
1!
#4208327333
0!
#4208336666
1"
#4208341666
0"
#4208342000
1!
#4208346583
1"
#4208351666
0"
#4208352000
0!
#4208356583
1"
#4208361666
0"
#4208366583
1"
#4208371666
0"
#4208376583
1"
#4208381666
0"
#4208386583
1"
#4208391583
0"
#4208391916
1!
#4208396583
1"
#4208401583
0"
#4208406583
1"
#4208411583
0"
#4208411666
0!
#4208416500
1"
#4208421583
0"
#4208421666
1!
#4208422000
0!
#4208430916
1"
#4208436250
1!
#4218450583
0!
#4218455666
0"
#4218460583
1!
#4218465083
1"
#4218470166
0"
#4218470500
0!
#4218475083
1"
#4218480166
0"
#4218480416
1!
#4218485083
1"
#4218490083
0"
#4218490500
0!
#4218495083
1"
#4218500083
0"
#4218505083
1"
#4218510083
0"
#4218515000
1"
#4218520083
0"
#4218525000
1"
#4218530083
0"
#4218535000
1"
#4218540083
0"
#4218545000
1"
#4218550083
0"
#4218550166
1!
#4218555500
0!
#4218560250
1"
#4218565250
0"
#4218570250
1"
#4218575250
0"
#4218580250
1"
#4218585250
0"
#4218590250
1"
#4218595250
0"
#4218600166
1"
#4218605250
0"
#4218605583
1!
#4218610166
1"
#4218615250
0"
#4218615583
0!
#4218620166
1"
#4218625250
0"
#4218630166
1"
#4218635250
0"
#4218640166
1"
#4218645166
0"
#4218645333
1!
#4218645583
0!
#4218654833
1"
#4218659833
0"
#4218664833
1"
#4218669833
0"
#4218670166
1!
#4218674833
1"
#4218679833
0"
#4218684833
1"
#4218689833
0"
#4218690250
0!
#4218694750
1"
#4218699833
0"
#4218700166
1!
#4218704750
1"
#4218709833
0"
#4218710166
0!
#4218714750
1"
#4218719833
0"
#4218724750
1"
#4218729833
0"
#4218734750
1"
#4218739750
0"
#4218739916
1!
#4218740166
0!
#4218749083
1"
#4218754500
1!
#4228768833
0!
#4228773833
0"
#4228778833
1!
#4228783333
1"
#4228788333
0"
#4228788750
0!
#4228793250
1"
#4228798333
0"
#4228798666
1!
#4228803250
1"
#4228808333
0"
#4228808666
0!
#4228813250
1"
#4228818333
0"
#4228823250
1"
#4228828333
0"
#4228833250
1"
#4228838250
0"
#4228843250
1"
#4228848250
0"
#4228853250
1"
#4228858250
0"
#4228863250
1"
#4228868250
0"
#4228868333
1!
#4228873583
0!
#4228878416
1"
#4228883416
0"
#4228888333
1"
#4228893416
0"
#4228898333
1"
#4228903416
0"
#4228908333
1"
#4228913416
0"
#4228918333
1"
#4228923416
0"
#4228923666
1!
#4228928333
1"
#4228933333
0"
#4228933750
0!
#4228938333
1"
#4228943333
0"
#4228943666
1!
#4228948333
1"
#4228953333
0"
#4228953416
0!
#4228958333
1"
#4228963333
0"
#4228963416
1!
#4228963750
0!
#4228973000
1"
#4228978000
0"
#4228978333
1!
#4228982916
1"
#4228988000
0"
#4228988333
0!
#4228992916
1"
#4228998000
0"
#4229002916
1"
#4229008000
0"
#4229012916
1"
#4229018000
0"
#4229022916
1"
#4229027916
0"
#4229028250
1!
#4229032916
1"
#4229037916
0"
#4229038333
0!
#4229042916
1"
#4229047916
0"
#4229052916
1"
#4229057916
0"
#4229058083
1!
#4229058333
0!
#4229067250
1"
#4229072583
1!
#4239091916
0!
#4239097000
0"
#4239102000
1!
#4239106500
1"
#4239111500
0"
#4239111916
0!
#4239116500
1"
#4239121500
0"
#4239121833
1!
#4239126500
1"
#4239131500
0"
#4239131916
0!
#4239136500
1"
#4239141500
0"
#4239146416
1"
#4239151500
0"
#4239156416
1"
#4239161500
0"
#4239166416
1"
#4239171500
0"
#4239176416
1"
#4239181500
0"
#4239186416
1"
#4239191416
0"
#4239191583
1!
#4239196916
0!
#4239201666
1"
#4239206666
0"
#4239211666
1"
#4239216666
0"
#4239221583
1"
#4239226666
0"
#4239231583
1"
#4239236666
0"
#4239241583
1"
#4239246666
0"
#4239247000
1!
#4239251583
1"
#4239256666
0"
#4239261583
1"
#4239266583
0"
#4239267000
0!
#4239271583
1"
#4239276583
0"
#4239281583
1"
#4239286583
0"
#4239286750
1!
#4239287000
0!
#4239296250
1"
#4239301250
0"
#4239301583
1!
#4239306250
1"
#4239311250
0"
#4239311666
0!
#4239316166
1"
#4239321250
0"
#4239321583
1!
#4239326166
1"
#4239331250
0"
#4239331583
0!
#4239336166
1"
#4239341250
0"
#4239346166
1"
#4239351250
0"
#4239351500
1!
#4239356166
1"
#4239361166
0"
#4239366166
1"
#4239371166
0"
#4239371250
0!
#4239376166
1"
#4239381166
0"
#4239381333
1!
#4239381583
0!
#4239390500
1"
#4239395833
1!
#4249410166
0!
#4249415250
0"
#4249420250
1!
#4249424750
1"
#4249429833
0"
#4249430166
0!
#4249434750
1"
#4249439750
0"
#4249440083
1!
#4249444750
1"
#4249449750
0"
#4249450166
0!
#4249454750
1"
#4249459750
0"
#4249464750
1"
#4249469750
0"
#4249474666
1"
#4249479750
0"
#4249484666
1"
#4249489750
0"
#4249494666
1"
#4249499750
0"
#4249504666
1"
#4249509750
0"
#4249509833
1!
#4249515166
0!
#4249519916
1"
#4249524916
0"
#4249529916
1"
#4249534916
0"
#4249539916
1"
#4249544916
0"
#4249549833
1"
#4249554916
0"
#4249559833
1"
#4249564916
0"
#4249565250
1!
#4249569833
1"
#4249574916
0"
#4249579833
1"
#4249584916
0"
#4249589833
1"
#4249594833
0"
#4249594916
0!
#4249599833
1"
#4249604833
0"
#4249605000
1!
#4249605250
0!
#4249614500
1"
#4249619500
0"
#4249619833
1!
#4249624500
1"
#4249629500
0"
#4249629916
0!
#4249634500
1"
#4249639500
0"
#4249644416
1"
#4249649500
0"
#4249649833
1!
#4249654416
1"
#4249659500
0"
#4249659833
0!
#4249664416
1"
#4249669500
0"
#4249669833
1!
#4249674416
1"
#4249679500
0"
#4249684416
1"
#4249689416
0"
#4249689500
0!
#4249694416
1"
#4249699416
0"
#4249699583
1!
#4249699833
0!
#4249708750
1"
#4249714166
1!
#4259728500
0!
#4259733500
0"
#4259738500
1!
#4259742916
1"
#4259748000
0"
#4259748416
0!
#4259752916
1"
#4259758000
0"
#4259758333
1!
#4259762916
1"
#4259768000
0"
#4259768333
0!
#4259772916
1"
#4259778000
0"
#4259782916
1"
#4259787916
0"
#4259792916
1"
#4259797916
0"
#4259802916
1"
#4259807916
0"
#4259812916
1"
#4259817916
0"
#4259822833
1"
#4259827916
0"
#4259828000
1!
#4259833333
0!
#4259838083
1"
#4259843166
0"
#4259848083
1"
#4259853166
0"
#4259858083
1"
#4259863166
0"
#4259868083
1"
#4259873083
0"
#4259873416
1!
#4259878083
1"
#4259883083
0"
#4259883500
0!
#4259888083
1"
#4259893083
0"
#4259898000
1"
#4259903083
0"
#4259908000
1"
#4259913083
0"
#4259918000
1"
#4259923083
0"
#4259923166
1!
#4259923416
0!
#4259932666
1"
#4259937750
0"
#4259938083
1!
#4259942666
1"
#4259947750
0"
#4259952666
1"
#4259957750
0"
#4259962666
1"
#4259967666
0"
#4259972666
1"
#4259977666
0"
#4259978083
0!
#4259982666
1"
#4259987666
0"
#4259988000
1!
#4259992583
1"
#4259997666
0"
#4260002583
1"
#4260007666
0"
#4260007750
0!
#4260012583
1"
#4260017666
0"
#4260017750
1!
#4260018000
0!
#4260027000
1"
#4260032333
1!
#4270046666
0!
#4270051750
0"
#4270056666
1!
#4270061166
1"
#4270066166
0"
#4270066583
0!
#4270071166
1"
#4270076166
0"
#4270076500
1!
#4270081166
1"
#4270086166
0"
#4270086583
0!
#4270091166
1"
#4270096166
0"
#4270101083
1"
#4270106166
0"
#4270111083
1"
#4270116166
0"
#4270121083
1"
#4270126166
0"
#4270131083
1"
#4270136166
0"
#4270141083
1"
#4270146083
0"
#4270146250
1!
#4270151500
0!
#4270156250
1"
#4270161250
0"
#4270166250
1"
#4270171250
0"
#4270176250
1"
#4270181250
0"
#4270186250
1"
#4270191250
0"
#4270191583
1!
#4270196166
1"
#4270201250
0"
#4270201583
0!
#4270206166
1"
#4270211250
0"
#4270216166
1"
#4270221250
0"
#4270221583
1!
#4270226166
1"
#4270231250
0"
#4270231333
0!
#4270236166
1"
#4270241166
0"
#4270241333
1!
#4270241583
0!
#4270250833
1"
#4270255833
0"
#4270260833
1"
#4270265833
0"
#4270266166
1!
#4270270833
1"
#4270275833
0"
#4270280833
1"
#4270285833
0"
#4270286250
0!
#4270290750
1"
#4270295833
0"
#4270300750
1"
#4270305833
0"
#4270306166
1!
#4270310750
1"
#4270315833
0"
#4270320750
1"
#4270325833
0"
#4270325916
0!
#4270330750
1"
#4270335750
0"
#4270335916
1!
#4270336166
0!
#4270345083
1"
#4270350500
1!
#4280364833
0!
#4280369833
0"
#4280374833
1!
#4280379333
1"
#4280384333
0"
#4280384750
0!
#4280389250
1"
#4280394333
0"
#4280394666
1!
#4280399250
1"
#4280404333
0"
#4280404666
0!
#4280409250
1"
#4280414333
0"
#4280419250
1"
#4280424333
0"
#4280429250
1"
#4280434250
0"
#4280439250
1"
#4280444250
0"
#4280449250
1"
#4280454250
0"
#4280459250
1"
#4280464250
0"
#4280464416
1!
#4280469666
0!
#4280474416
1"
#4280479416
0"
#4280484333
1"
#4280489416
0"
#4280494333
1"
#4280499416
0"
#4280504333
1"
#4280509416
0"
#4280509750
1!
#4280514333
1"
#4280519416
0"
#4280519750
0!
#4280524333
1"
#4280529416
0"
#4280529666
1!
#4280534333
1"
#4280539333
0"
#4280539750
0!
#4280544333
1"
#4280549333
0"
#4280554333
1"
#4280559333
0"
#4280559500
1!
#4280559750
0!
#4280569000
1"
#4280574000
0"
#4280579000
1"
#4280584000
0"
#4280584333
1!
#4280588916
1"
#4280594000
0"
#4280598916
1"
#4280604000
0"
#4280604333
0!
#4280608916
1"
#4280614000
0"
#4280618916
1"
#4280624000
0"
#4280624250
1!
#4280628916
1"
#4280633916
0"
#4280638916
1"
#4280643916
0"
#4280644000
0!
#4280648916
1"
#4280653916
0"
#4280654083
1!
#4280654333
0!
#4280663166
1"
#4280668583
1!
#4290682916
0!
#4290687916
0"
#4290692916
1!
#4290697416
1"
#4290702416
0"
#4290702833
0!
#4290707333
1"
#4290712416
0"
#4290712750
1!
#4290717333
1"
#4290722416
0"
#4290722750
0!
#4290727333
1"
#4290732416
0"
#4290737333
1"
#4290742416
0"
#4290747333
1"
#4290752333
0"
#4290757333
1"
#4290762333
0"
#4290767333
1"
#4290772333
0"
#4290777333
1"
#4290782333
0"
#4290782416
1!
#4290787666
0!
#4290792500
1"
#4290797500
0"
#4290802416
1"
#4290807500
0"
#4290812416
1"
#4290817500
0"
#4290822416
1"
#4290827500
0"
#4290827833
1!
#4290832416
1"
#4290837500
0"
#4290837833
0!
#4290842416
1"
#4290847416
0"
#4290847750
1!
#4290852416
1"
#4290857416
0"
#4290862416
1"
#4290867416
0"
#4290867500
0!
#4290872333
1"
#4290877416
0"
#4290877500
1!
#4290877833
0!
#4290887000
1"
#4290892000
0"
#4290892333
1!
#4290897000
1"
#4290902000
0"
#4290902416
0!
#4290907000
1"
#4290912000
0"
#4290912333
1!
#4290916916
1"
#4290922000
0"
#4290922333
0!
#4290926916
1"
#4290932000
0"
#4290936916
1"
#4290942000
0"
#4290946916
1"
#4290952000
0"
#4290956916
1"
#4290961916
0"
#4290966916
1"
#4290971916
0"
#4290972083
1!
#4290972333
0!
#4290981250
1"
#4290986666
1!
#4301005916
0!
#4301011000
0"
#4301015916
1!
#4301020416
1"
#4301025500
0"
#4301025833
0!
#4301030416
1"
#4301035500
0"
#4301035750
1!
#4301040416
1"
#4301045500
0"
#4301045833
0!
#4301050416
1"
#4301055500
0"
#4301060416
1"
#4301065416
0"
#4301070416
1"
#4301075416
0"
#4301080416
1"
#4301085416
0"
#4301090333
1"
#4301095416
0"
#4301100333
1"
#4301105416
0"
#4301105500
1!
#4301110750
0!
#4301115500
1"
#4301120583
0"
#4301125500
1"
#4301130583
0"
#4301135500
1"
#4301140583
0"
#4301145500
1"
#4301150583
0"
#4301150833
1!
#4301155500
1"
#4301160500
0"
#4301165500
1"
#4301170500
0"
#4301170916
0!
#4301175500
1"
#4301180500
0"
#4301185500
1"
#4301190500
0"
#4301195416
1"
#4301200500
0"
#4301200583
1!
#4301200833
0!
#4301210083
1"
#4301215083
0"
#4301215416
1!
#4301220083
1"
#4301225083
0"
#4301225500
0!
#4301230000
1"
#4301235083
0"
#4301235416
1!
#4301240000
1"
#4301245083
0"
#4301245416
0!
#4301250000
1"
#4301255083
0"
#4301260000
1"
#4301265083
0"
#4301265333
1!
#4301270000
1"
#4301275000
0"
#4301275416
0!
#4301280000
1"
#4301285000
0"
#4301290000
1"
#4301295000
0"
#4301295166
1!
#4301295416
0!
#4301304333
1"
#4301309666
1!
#4311324000
0!
#4311329083
0"
#4311338000
1!
#4311342500
1"
#4311347583
0"
#4311347916
0!
#4311352500
1"
#4311357583
0"
#4311357916
1!
#4311362500
1"
#4311367583
0"
#4311367916
0!
#4311372500
1"
#4311377500
0"
#4311382500
1"
#4311387500
0"
#4311392500
1"
#4311397500
0"
#4311402500
1"
#4311407500
0"
#4311412416
1"
#4311417500
0"
#4311422416
1"
#4311427500
0"
#4311427583
1!
#4311432833
0!
#4311437583
1"
#4311442666
0"
#4311447583
1"
#4311452666
0"
#4311457583
1"
#4311462666
0"
#4311467583
1"
#4311472583
0"
#4311472916
1!
#4311477583
1"
#4311482583
0"
#4311487583
1"
#4311492583
0"
#4311493000
0!
#4311497583
1"
#4311502583
0"
#4311502916
1!
#4311507500
1"
#4311512583
0"
#4311512666
0!
#4311517500
1"
#4311522583
0"
#4311522666
1!
#4311522916
0!
#4311532166
1"
#4311537250
0"
#4311537583
1!
#4311542166
1"
#4311547250
0"
#4311547583
0!
#4311552166
1"
#4311557250
0"
#4311562166
1"
#4311567166
0"
#4311567500
1!
#4311572166
1"
#4311577166
0"
#4311582166
1"
#4311587166
0"
#4311592166
1"
#4311597166
0"
#4311602083
1"
#4311607166
0"
#4311607250
0!
#4311612083
1"
#4311617166
0"
#4311617250
1!
#4311617500
0!
#4311626500
1"
#4311631833
1!
#4321646166
0!
#4321651250
0"
#4321656250
1!
#4321660750
1"
#4321665750
0"
#4321666166
0!
#4321670750
1"
#4321675750
0"
#4321676083
1!
#4321680666
1"
#4321685750
0"
#4321686083
0!
#4321690666
1"
#4321695750
0"
#4321700666
1"
#4321705750
0"
#4321710666
1"
#4321715750
0"
#4321720666
1"
#4321725666
0"
#4321730666
1"
#4321735666
0"
#4321740666
1"
#4321745666
0"
#4321745833
1!
#4321751083
0!
#4321755833
1"
#4321760916
0"
#4321765833
1"
#4321770916
0"
#4321775833
1"
#4321780916
0"
#4321785833
1"
#4321790916
0"
#4321791250
1!
#4321795833
1"
#4321800833
0"
#4321805833
1"
#4321810833
0"
#4321815833
1"
#4321820833
0"
#4321821250
0!
#4321825833
1"
#4321830833
0"
#4321835750
1"
#4321840833
0"
#4321840916
1!
#4321841166
0!
#4321850416
1"
#4321855500
0"
#4321855833
1!
#4321860416
1"
#4321865500
0"
#4321865833
0!
#4321870416
1"
#4321875500
0"
#4321880416
1"
#4321885500
0"
#4321885833
1!
#4321890416
1"
#4321895500
0"
#4321900416
1"
#4321905416
0"
#4321905833
0!
#4321910416
1"
#4321915416
0"
#4321915750
1!
#4321920416
1"
#4321925416
0"
#4321925500
0!
#4321930333
1"
#4321935416
0"
#4321935500
1!
#4321935750
0!
#4321944750
1"
#4321950083
1!
#4331964416
0!
#4331969500
0"
#4331974416
1!
#4331978916
1"
#4331984000
0"
#4331984333
0!
#4331988916
1"
#4331994000
0"
#4331994250
1!
#4331998916
1"
#4332003916
0"
#4332004333
0!
#4332008916
1"
#4332013916
0"
#4332018916
1"
#4332023916
0"
#4332028833
1"
#4332033916
0"
#4332038833
1"
#4332043916
0"
#4332048833
1"
#4332053916
0"
#4332058833
1"
#4332063916
0"
#4332064000
1!
#4332069250
0!
#4332074000
1"
#4332079083
0"
#4332084000
1"
#4332089083
0"
#4332094000
1"
#4332099000
0"
#4332104000
1"
#4332109000
0"
#4332109333
1!
#4332114000
1"
#4332119000
0"
#4332123916
1"
#4332129000
0"
#4332133916
1"
#4332139000
0"
#4332143916
1"
#4332149000
0"
#4332149083
0!
#4332153916
1"
#4332159000
0"
#4332159083
1!
#4332159333
0!
#4332168583
1"
#4332173666
0"
#4332174000
1!
#4332178583
1"
#4332183666
0"
#4332184000
0!
#4332188583
1"
#4332193583
0"
#4332193916
1!
#4332198583
1"
#4332203583
0"
#4332208583
1"
#4332213583
0"
#4332218583
1"
#4332223583
0"
#4332228500
1"
#4332233583
0"
#4332238500
1"
#4332243583
0"
#4332243666
0!
#4332248500
1"
#4332253583
0"
#4332253666
1!
#4332253916
0!
#4332262833
1"
#4332268250
1!
#4342282583
0!
#4342287666
0"
#4342292583
1!
#4342297083
1"
#4342302083
0"
#4342302500
0!
#4342307083
1"
#4342312083
0"
#4342312416
1!
#4342317083
1"
#4342322083
0"
#4342322500
0!
#4342327000
1"
#4342332083
0"
#4342337000
1"
#4342342083
0"
#4342347000
1"
#4342352083
0"
#4342357000
1"
#4342362083
0"
#4342367000
1"
#4342372000
0"
#4342377000
1"
#4342382000
0"
#4342382166
1!
#4342387416
0!
#4342392250
1"
#4342397250
0"
#4342402166
1"
#4342407250
0"
#4342412166
1"
#4342417250
0"
#4342417583
1!
#4342422166
1"
#4342427250
0"
#4342427583
0!
#4342432166
1"
#4342437250
0"
#4342442166
1"
#4342447166
0"
#4342452166
1"
#4342457166
0"
#4342462166
1"
#4342467166
0"
#4342472166
1"
#4342477166
0"
#4342477250
1!
#4342477583
0!
#4342486833
1"
#4342491833
0"
#4342492166
1!
#4342496750
1"
#4342501833
0"
#4342502166
0!
#4342506750
1"
#4342511833
0"
#4342516750
1"
#4342521833
0"
#4342522166
1!
#4342526750
1"
#4342531833
0"
#4342536750
1"
#4342541750
0"
#4342542166
0!
#4342546750
1"
#4342551750
0"
#4342552083
1!
#4342556750
1"
#4342561750
0"
#4342561833
0!
#4342566750
1"
#4342571750
0"
#4342571916
1!
#4342572166
0!
#4342581083
1"
#4342586416
1!
#4352605750
0!
#4352610833
0"
#4352615833
1!
#4352620333
1"
#4352625333
0"
#4352625750
0!
#4352630333
1"
#4352635333
0"
#4352635666
1!
#4352640333
1"
#4352645333
0"
#4352645750
0!
#4352650333
1"
#4352655333
0"
#4352660250
1"
#4352665333
0"
#4352670250
1"
#4352675333
0"
#4352680250
1"
#4352685333
0"
#4352690250
1"
#4352695333
0"
#4352700250
1"
#4352705250
0"
#4352705416
1!
#4352710750
0!
#4352715500
1"
#4352720500
0"
#4352725500
1"
#4352730500
0"
#4352735416
1"
#4352740500
0"
#4352740833
1!
#4352745416
1"
#4352750500
0"
#4352750833
0!
#4352755416
1"
#4352760500
0"
#4352765416
1"
#4352770500
0"
#4352775416
1"
#4352780416
0"
#4352780750
1!
#4352785416
1"
#4352790416
0"
#4352790500
0!
#4352795416
1"
#4352800416
0"
#4352800583
1!
#4352800833
0!
#4352810083
1"
#4352815083
0"
#4352820083
1"
#4352825083
0"
#4352825416
1!
#4352830000
1"
#4352835083
0"
#4352840000
1"
#4352845083
0"
#4352845416
0!
#4352850000
1"
#4352855083
0"
#4352855416
1!
#4352860000
1"
#4352865083
0"
#4352865416
0!
#4352870000
1"
#4352875000
0"
#4352880000
1"
#4352885000
0"
#4352890000
1"
#4352895000
0"
#4352895166
1!
#4352895416
0!
#4352904333
1"
#4352909666
1!
#4362924000
0!
#4362929083
0"
#4362934083
1!
#4362938583
1"
#4362943666
0"
#4362944000
0!
#4362948583
1"
#4362953666
0"
#4362953916
1!
#4362958583
1"
#4362963583
0"
#4362964000
0!
#4362968583
1"
#4362973583
0"
#4362978583
1"
#4362983583
0"
#4362988500
1"
#4362993583
0"
#4362998500
1"
#4363003583
0"
#4363008500
1"
#4363013583
0"
#4363018500
1"
#4363023583
0"
#4363023666
1!
#4363029000
0!
#4363033750
1"
#4363038750
0"
#4363043750
1"
#4363048750
0"
#4363053750
1"
#4363058750
0"
#4363059083
1!
#4363063666
1"
#4363068750
0"
#4363069166
0!
#4363073666
1"
#4363078750
0"
#4363083666
1"
#4363088750
0"
#4363089083
1!
#4363093666
1"
#4363098750
0"
#4363099083
0!
#4363103666
1"
#4363108750
0"
#4363113666
1"
#4363118666
0"
#4363118833
1!
#4363119083
0!
#4363128333
1"
#4363133333
0"
#4363133666
1!
#4363138333
1"
#4363143333
0"
#4363143750
0!
#4363148333
1"
#4363153333
0"
#4363158333
1"
#4363163333
0"
#4363168250
1"
#4363173333
0"
#4363173666
1!
#4363178250
1"
#4363183333
0"
#4363188250
1"
#4363193333
0"
#4363198250
1"
#4363203333
0"
#4363203416
0!
#4363208250
1"
#4363213250
0"
#4363213416
1!
#4363213666
0!
#4363222583
1"
#4363228000
1!
#4373242333
0!
#4373247333
0"
#4373252333
1!
#4373256833
1"
#4373261833
0"
#4373262250
0!
#4373266750
1"
#4373271833
0"
#4373272166
1!
#4373276750
1"
#4373281833
0"
#4373282166
0!
#4373286750
1"
#4373291833
0"
#4373296750
1"
#4373301833
0"
#4373306750
1"
#4373311750
0"
#4373316750
1"
#4373321750
0"
#4373326750
1"
#4373331750
0"
#4373336666
1"
#4373341750
0"
#4373341833
1!
#4373347083
0!
#4373351916
1"
#4373356916
0"
#4373361833
1"
#4373366916
0"
#4373371833
1"
#4373376916
0"
#4373377250
1!
#4373381833
1"
#4373386916
0"
#4373387250
0!
#4373391833
1"
#4373396916
0"
#4373401833
1"
#4373406833
0"
#4373407166
1!
#4373411833
1"
#4373416833
0"
#4373421833
1"
#4373426833
0"
#4373426916
0!
#4373431750
1"
#4373436833
0"
#4373436916
1!
#4373437250
0!
#4373446500
1"
#4373451500
0"
#4373456416
1"
#4373461500
0"
#4373461833
1!
#4373466416
1"
#4373471500
0"
#4373476416
1"
#4373481500
0"
#4373481833
0!
#4373486416
1"
#4373491500
0"
#4373496416
1"
#4373501416
0"
#4373506416
1"
#4373511416
0"
#4373511750
1!
#4373516416
1"
#4373521416
0"
#4373521500
0!
#4373526416
1"
#4373531416
0"
#4373531500
1!
#4373531833
0!
#4373540750
1"
#4373546083
1!
#4383560416
0!
#4383565500
0"
#4383570416
1!
#4383574916
1"
#4383580000
0"
#4383580333
0!
#4383584916
1"
#4383590000
0"
#4383590333
1!
#4383594916
1"
#4383599916
0"
#4383600333
0!
#4383604916
1"
#4383609916
0"
#4383614916
1"
#4383619916
0"
#4383624916
1"
#4383629916
0"
#4383634833
1"
#4383639916
0"
#4383644833
1"
#4383649916
0"
#4383654833
1"
#4383659916
0"
#4383660000
1!
#4383665333
0!
#4383670083
1"
#4383675166
0"
#4383680083
1"
#4383685083
0"
#4383690083
1"
#4383695083
0"
#4383695416
1!
#4383700083
1"
#4383705083
0"
#4383705500
0!
#4383710000
1"
#4383715083
0"
#4383715416
1!
#4383720000
1"
#4383725083
0"
#4383725416
0!
#4383730000
1"
#4383735083
0"
#4383740000
1"
#4383745083
0"
#4383750000
1"
#4383755000
0"
#4383755166
1!
#4383755416
0!
#4383764666
1"
#4383769750
0"
#4383770000
1!
#4383774666
1"
#4383779666
0"
#4383780083
0!
#4383784666
1"
#4383789666
0"
#4383794666
1"
#4383799666
0"
#4383804666
1"
#4383809666
0"
#4383814583
1"
#4383819666
0"
#4383820000
1!
#4383824583
1"
#4383829666
0"
#4383834583
1"
#4383839666
0"
#4383839750
0!
#4383844583
1"
#4383849666
0"
#4383849750
1!
#4383850000
0!
#4383858916
1"
#4383864333
1!
#4393878666
0!
#4393883666
0"
#4393888666
1!
#4393893166
1"
#4393898250
0"
#4393898583
0!
#4393903166
1"
#4393908250
0"
#4393908583
1!
#4393913166
1"
#4393918250
0"
#4393918583
0!
#4393923166
1"
#4393928250
0"
#4393933166
1"
#4393938166
0"
#4393943166
1"
#4393948166
0"
#4393953166
1"
#4393958166
0"
#4393963083
1"
#4393968166
0"
#4393973083
1"
#4393978166
0"
#4393978250
1!
#4393983583
0!
#4393988333
1"
#4393993416
0"
#4393998333
1"
#4394003416
0"
#4394008333
1"
#4394013333
0"
#4394013666
1!
#4394018333
1"
#4394023333
0"
#4394023750
0!
#4394028333
1"
#4394033333
0"
#4394033666
1!
#4394038333
1"
#4394043333
0"
#4394043750
0!
#4394048250
1"
#4394053333
0"
#4394053666
1!
#4394058250
1"
#4394063333
0"
#4394063416
0!
#4394068250
1"
#4394073333
0"
#4394073416
1!
#4394073666
0!
#4394082916
1"
#4394088000
0"
#4394088333
1!
#4394092916
1"
#4394098000
0"
#4394098333
0!
#4394102916
1"
#4394107916
0"
#4394108250
1!
#4394112916
1"
#4394117916
0"
#4394122916
1"
#4394127916
0"
#4394132916
1"
#4394137916
0"
#4394142833
1"
#4394147916
0"
#4394152833
1"
#4394157916
0"
#4394158000
0!
#4394162833
1"
#4394167916
0"
